{
	"name": "Vimium C",
	"@time": "7/17/2021, 2:05:09 PM",
	"time": 1626548709145,
	"environment": {
		"extension": "1.90.2",
		"platform": "linux",
		"firefox": 91
	},
	"exclusionRules": [
		{
			"pattern": ":https://mail.google.com/",
			"passKeys": ""
		},
		{
			"pattern": ":https://co1ncidence.gitlab.io/typ/",
			"passKeys": ""
		},
		{
			"pattern": ":https://monkeytype.com/",
			"passKeys": ""
		},
		{
			"pattern": ":https://ng.cengage.com/",
			"passKeys": ""
		},
		{
			"pattern": ":https://cnow.apps.ng.cengage.com/",
			"passKeys": ""
		},
		{
			"pattern": "^https?://rhysd\\.github\\.io/",
			"passKeys": ""
		},
		{
			"pattern": ":https://www.mathway.com/",
			"passKeys": ""
		},
		{
			"pattern": ":https://papaya.io/",
			"passKeys": ""
		}
	],
	"keyMappings": [
		"unmap J",
		"unmap K",
		"map J nextTab",
		"map K previousTab",
		""
	],
	"keyboard": [
		250,
		30
	],
	"newTabUrl": "about:blank",
	"searchEngines": [
		"g|go|gg|google|Google: https://www.google.com/search?q=%s \\",
		"  www.google.com re=/^(?:\\.[a-z]{2,4})?\\/search\\b.*?[#&?]q=([^#&]*)/i\\",
		"  blank=https://www.google.com/ Google",
		"",
		"d|ddg|duckduckgo: https://duckduckgo.com/?q=%s DuckDuckGo",
		"",
		"g.m|gm|g.map|gmap: https://www.google.com/maps?q=%s \\",
		"  blank=https://www.google.com/maps Google Maps",
		"",
		"y|yt: https://www.youtube.com/results?search_query=%s \\",
		"  blank=https://www.youtube.com/ YouTube",
		"",
		"w|wiki: https://www.wikipedia.org/w/index.php?search=%s Wikipedia",
		"",
		"g.s|gs|gscholar: https://scholar.google.com/scholar?q=$s \\",
		"  scholar.google.com re=/^(?:\\.[a-z]{2,4})?\\/scholar\\b.*?[#&?]q=([^#&]*)/i\\",
		"  blank=https://scholar.google.com/ Google Scholar",
		"",
		"az|amazon: https://www.amazon.com/s/?field-keywords=%s \\",
		"  blank=https://www.amazon.com/ Amazon",
		"",
		"dz|deezer: https://www.deezer.com/search/%s",
		"",
		"us|unsplash: https://www.unsplash.com/s/photos/%s",
		"",
		"tm|tumblr: https://www.tumblr.com/search/%s",
		"",
		"v.m|v\\:math: vimium://math\\ $S re= Calculate",
		"",
		"gh|github: https://github.com/search?q=$s \\",
		"  blank=https://github.com/ GitHub Repo",
		"",
		"js\\:|Js: javascript:\\ $S; JavaScript",
		""
	],
	"searchUrl": "https://duckduckgo.com/?q=$s DuckDuckGo"
}
